Understanding the error of Multispecies Biodiversity Indicators: A simulated example — UKCEH Environmental Data Science Book
…
# Remove any earlier inclusion or trait columns before joining
growth_summary <- growth_summary %>%
  select(-starts_with("included_in_sample"), -starts_with("trait")) %>%
  left_join(traits_df, by = "species") %>%
  mutate(
    log_growth_rate = log(growth_rate)
  )

# View updated summary
print(growth_summary)

# A tibble: 40 × 10
   species dataset year_1 year_2 growth_rate  trait logit_pi    pi
   <chr>   <chr>    <dbl>  <dbl>       <dbl>  <dbl>    <dbl> <dbl>
 1 sp1     all      0.268  0.195       0.728  0.665    0.330 0.582
 2 sp10    all      0.451  0.553       1.23   0.573    0.145 0.536
 3 sp11    all      0.154  0.12        0.779  0.297   -0.406 0.400
 4 sp12    all      0.364  0.241       0.662  0.607    0.213 0.553
 5 sp13    all      0.311  0.176       0.566 -0.304   -1.61  0.167
 6 sp14    all      0.156  0.083       0.532  0.610    0.220 0.555
 7 sp15    all      0.229  0.184       0.803  0.696    0.392 0.597
 8 sp16    all      0.341  0.213       0.625  0.588    0.176 0.544
 9 sp17    all      0.43   0.294       0.684  0.588    0.177 0.544
10 sp18    all      0.58   0.609       1.05  -0.314   -1.63  0.164
# ℹ 30 more rows
# ℹ 2 more variables: included_in_sample <lgl>, log_growth_rate <dbl>
…
# A tibble: 40 × 3
   species  year      ddc
   <chr>   <dbl>    <dbl>
 1 sp1         1  0.211  
 2 sp1         2  0.0765 
 3 sp10        1  0.112  
 4 sp10        2  0.146  
 5 sp11        1  0.00366
 6 sp11        2  0.0104 
 7 sp12        1  0.150  
 8 sp12        2  0.121  
 9 sp13        1 -0.0530 
10 sp13        2 -0.0323 
# ℹ 30 more rows

# A tibble: 40 × 4
   species  year pop_sd sample_sd
   <chr>   <dbl>  <dbl>     <dbl>
 1 sp1         1  0.443     0.489
 2 sp1         2  0.396     0.420
 3 sp10        1  0.498     0.500
 4 sp10        2  0.497     0.483
 5 sp11        1  0.361     0.363
 6 sp11        2  0.325     0.330
 7 sp12        1  0.481     0.499
 8 sp12        2  0.428     0.458
 9 sp13        1  0.463     0.449
10 sp13        2  0.381     0.369
# ℹ 30 more rows
…
